{
    "/receita": {
      "target": "https://receitaws.com.br/v1/cnpj",
      "secure": false,
      "pathRewrite": {
      "^/receita": ""
    },
      "changeOrigin": true
    },

    "/wk": {
      "target": "http://localhost:8080/wk",
      "secure": true,
      "pathRewrite": {
      "^/wk": ""
    },
      "changeOrigin": false
    },

    "/cep": {
      "target": "https://viacep.com.br/ws",
      "secure": true,
      "pathRewrite": {
      "^/cep": ""
    },
      "changeOrigin": true
    }
}

